[gd_scene load_steps=2 format=2]

[ext_resource path="res://assets/image/backgroundWhite.png" type="Texture" id=1]

[node name="flash" type="CPUParticles2D"]
emitting = false
amount = 1
lifetime = 0.15
one_shot = true
texture = ExtResource( 1 )
